-------------------------------------------------------------------------------
Test set: org.jfree.data.time.TimeSeriesTest
-------------------------------------------------------------------------------
Tests run: 44, Failures: 0, Errors: 0, Skipped: 0, Time elapsed: 0.044 sec
