-------------------------------------------------------------------------------
Test set: org.jfree.chart.renderer.category.LayeredBarRendererTest
-------------------------------------------------------------------------------
Tests run: 6, Failures: 0, Errors: 0, Skipped: 0, Time elapsed: 0.006 sec
