-------------------------------------------------------------------------------
Test set: org.jfree.data.time.WeekTest
-------------------------------------------------------------------------------
Tests run: 23, Failures: 0, Errors: 0, Skipped: 0, Time elapsed: 0.022 sec
