-------------------------------------------------------------------------------
Test set: org.jfree.chart.StackedBarChartTest
-------------------------------------------------------------------------------
Tests run: 4, Failures: 0, Errors: 0, Skipped: 0, Time elapsed: 0.005 sec
