-------------------------------------------------------------------------------
Test set: org.jfree.chart.annotations.CategoryPointerAnnotationTest
-------------------------------------------------------------------------------
Tests run: 5, Failures: 0, Errors: 0, Skipped: 0, Time elapsed: 0.004 sec
