-------------------------------------------------------------------------------
Test set: org.jfree.chart.renderer.GrayPaintScaleTest
-------------------------------------------------------------------------------
Tests run: 5, Failures: 0, Errors: 0, Skipped: 0, Time elapsed: 0 sec
