-------------------------------------------------------------------------------
Test set: org.jfree.data.xy.XYSeriesCollectionTest
-------------------------------------------------------------------------------
Tests run: 18, Failures: 0, Errors: 0, Skipped: 0, Time elapsed: 0.008 sec
