-------------------------------------------------------------------------------
Test set: org.jfree.data.time.ohlc.OHLCSeriesCollectionTest
-------------------------------------------------------------------------------
Tests run: 8, Failures: 0, Errors: 0, Skipped: 0, Time elapsed: 0.008 sec
