-------------------------------------------------------------------------------
Test set: org.jfree.data.xy.TableXYDatasetTest
-------------------------------------------------------------------------------
Tests run: 9, Failures: 0, Errors: 0, Skipped: 0, Time elapsed: 0.005 sec
