-------------------------------------------------------------------------------
Test set: org.jfree.chart.LineChartTest
-------------------------------------------------------------------------------
Tests run: 4, Failures: 0, Errors: 0, Skipped: 0, Time elapsed: 0.423 sec
