-------------------------------------------------------------------------------
Test set: org.jfree.data.statistics.DefaultBoxAndWhiskerXYDatasetTest
-------------------------------------------------------------------------------
Tests run: 6, Failures: 0, Errors: 0, Skipped: 0, Time elapsed: 0.005 sec
