-------------------------------------------------------------------------------
Test set: org.jfree.chart.renderer.category.LineAndShapeRendererTest
-------------------------------------------------------------------------------
Tests run: 7, Failures: 0, Errors: 0, Skipped: 0, Time elapsed: 0.002 sec
