-------------------------------------------------------------------------------
Test set: org.jfree.chart.axis.LogarithmicAxisTest
-------------------------------------------------------------------------------
Tests run: 5, Failures: 0, Errors: 0, Skipped: 0, Time elapsed: 0.003 sec
