-------------------------------------------------------------------------------
Test set: org.jfree.data.time.TimePeriodValuesTest
-------------------------------------------------------------------------------
Tests run: 12, Failures: 0, Errors: 0, Skipped: 0, Time elapsed: 0.012 sec
