-------------------------------------------------------------------------------
Test set: org.jfree.data.xy.DefaultHighLowDatasetTest
-------------------------------------------------------------------------------
Tests run: 4, Failures: 0, Errors: 0, Skipped: 0, Time elapsed: 0.003 sec
