-------------------------------------------------------------------------------
Test set: org.jfree.chart.axis.LogAxisTest
-------------------------------------------------------------------------------
Tests run: 12, Failures: 0, Errors: 0, Skipped: 0, Time elapsed: 0.019 sec
