-------------------------------------------------------------------------------
Test set: org.jfree.chart.renderer.xy.XYBarRendererTest
-------------------------------------------------------------------------------
Tests run: 11, Failures: 0, Errors: 0, Skipped: 0, Time elapsed: 0.006 sec
