-------------------------------------------------------------------------------
Test set: org.apache.fontbox.ttf.TestTTFParser
-------------------------------------------------------------------------------
Tests run: 1, Failures: 0, Errors: 0, Skipped: 0, Time elapsed: 0.101 sec
