-------------------------------------------------------------------------------
Test set: org.jfree.data.statistics.DefaultMultiValueCategoryDatasetTest
-------------------------------------------------------------------------------
Tests run: 8, Failures: 0, Errors: 0, Skipped: 0, Time elapsed: 0.019 sec
