-------------------------------------------------------------------------------
Test set: org.jfree.chart.block.LineBorderTest
-------------------------------------------------------------------------------
Tests run: 3, Failures: 0, Errors: 0, Skipped: 0, Time elapsed: 0.01 sec
