-------------------------------------------------------------------------------
Test set: org.jfree.data.xy.XYDataItemTest
-------------------------------------------------------------------------------
Tests run: 3, Failures: 0, Errors: 0, Skipped: 0, Time elapsed: 0.002 sec
