-------------------------------------------------------------------------------
Test set: org.jfree.data.general.DatasetUtilitiesTest
-------------------------------------------------------------------------------
Tests run: 57, Failures: 0, Errors: 0, Skipped: 0, Time elapsed: 0.152 sec
