-------------------------------------------------------------------------------
Test set: org.jfree.chart.renderer.category.IntervalBarRendererTest
-------------------------------------------------------------------------------
Tests run: 7, Failures: 0, Errors: 0, Skipped: 0, Time elapsed: 0.09 sec
