-------------------------------------------------------------------------------
Test set: org.jfree.chart.labels.CustomXYItemLabelGeneratorTest
-------------------------------------------------------------------------------
Tests run: 3, Failures: 0, Errors: 0, Skipped: 0, Time elapsed: 0.008 sec
