-------------------------------------------------------------------------------
Test set: org.jfree.chart.renderer.category.StatisticalBarRendererTest
-------------------------------------------------------------------------------
Tests run: 11, Failures: 0, Errors: 0, Skipped: 0, Time elapsed: 0.15 sec
