-------------------------------------------------------------------------------
Test set: org.jfree.chart.renderer.category.StackedAreaRendererTest
-------------------------------------------------------------------------------
Tests run: 6, Failures: 0, Errors: 0, Skipped: 0, Time elapsed: 0.02 sec
