-------------------------------------------------------------------------------
Test set: org.jfree.chart.needle.MiddlePinNeedleTest
-------------------------------------------------------------------------------
Tests run: 3, Failures: 0, Errors: 0, Skipped: 0, Time elapsed: 0.009 sec
