-------------------------------------------------------------------------------
Test set: org.jfree.chart.renderer.xy.XYLineAndShapeRendererTest
-------------------------------------------------------------------------------
Tests run: 9, Failures: 0, Errors: 0, Skipped: 0, Time elapsed: 0.028 sec
