-------------------------------------------------------------------------------
Test set: org.jfree.data.statistics.StatisticsTest
-------------------------------------------------------------------------------
Tests run: 12, Failures: 0, Errors: 0, Skipped: 0, Time elapsed: 0.023 sec
