-------------------------------------------------------------------------------
Test set: org.jfree.data.xy.XYIntervalSeriesCollectionTest
-------------------------------------------------------------------------------
Tests run: 6, Failures: 0, Errors: 0, Skipped: 0, Time elapsed: 0.026 sec
