-------------------------------------------------------------------------------
Test set: org.jfree.data.function.PowerFunction2DTest
-------------------------------------------------------------------------------
Tests run: 4, Failures: 0, Errors: 0, Skipped: 0, Time elapsed: 0.033 sec
