-------------------------------------------------------------------------------
Test set: org.jfree.data.ComparableObjectItemTest
-------------------------------------------------------------------------------
Tests run: 5, Failures: 0, Errors: 0, Skipped: 0, Time elapsed: 0.006 sec
