-------------------------------------------------------------------------------
Test set: org.jfree.data.statistics.MeanAndStandardDeviationTest
-------------------------------------------------------------------------------
Tests run: 3, Failures: 0, Errors: 0, Skipped: 0, Time elapsed: 0.015 sec
