-------------------------------------------------------------------------------
Test set: org.jfree.chart.StackedBarChart3DTest
-------------------------------------------------------------------------------
Tests run: 4, Failures: 0, Errors: 0, Skipped: 0, Time elapsed: 0.049 sec
