-------------------------------------------------------------------------------
Test set: org.jfree.data.time.DayTest
-------------------------------------------------------------------------------
Tests run: 22, Failures: 0, Errors: 0, Skipped: 0, Time elapsed: 0.064 sec
