-------------------------------------------------------------------------------
Test set: org.jfree.chart.plot.RingPlotTest
-------------------------------------------------------------------------------
Tests run: 3, Failures: 0, Errors: 0, Skipped: 0, Time elapsed: 0.021 sec
