-------------------------------------------------------------------------------
Test set: org.jfree.data.time.TimeSeriesCollectionTest
-------------------------------------------------------------------------------
Tests run: 11, Failures: 0, Errors: 0, Skipped: 0, Time elapsed: 0.155 sec
