-------------------------------------------------------------------------------
Test set: org.jfree.chart.renderer.category.BarRenderer3DTest
-------------------------------------------------------------------------------
Tests run: 5, Failures: 0, Errors: 0, Skipped: 0, Time elapsed: 0.018 sec
