-------------------------------------------------------------------------------
Test set: org.jfree.chart.StrokeMapTest
-------------------------------------------------------------------------------
Tests run: 6, Failures: 0, Errors: 0, Skipped: 0, Time elapsed: 0.012 sec
