-------------------------------------------------------------------------------
Test set: org.jfree.chart.plot.XYPlotTest
-------------------------------------------------------------------------------
Tests run: 42, Failures: 0, Errors: 0, Skipped: 0, Time elapsed: 0.308 sec
