-------------------------------------------------------------------------------
Test set: org.jfree.chart.renderer.xy.StandardXYBarPainterTest
-------------------------------------------------------------------------------
Tests run: 4, Failures: 0, Errors: 0, Skipped: 0, Time elapsed: 0.04 sec
