-------------------------------------------------------------------------------
Test set: org.jfree.chart.plot.dial.DialBackgroundTest
-------------------------------------------------------------------------------
Tests run: 4, Failures: 0, Errors: 0, Skipped: 0, Time elapsed: 0.027 sec
