-------------------------------------------------------------------------------
Test set: org.jfree.chart.labels.HighLowItemLabelGeneratorTest
-------------------------------------------------------------------------------
Tests run: 5, Failures: 0, Errors: 0, Skipped: 0, Time elapsed: 0.046 sec
