-------------------------------------------------------------------------------
Test set: org.jfree.data.gantt.SlidingGanttCategoryDatasetTest
-------------------------------------------------------------------------------
Tests run: 3, Failures: 0, Errors: 0, Skipped: 0, Time elapsed: 0.018 sec
