-------------------------------------------------------------------------------
Test set: org.jfree.chart.labels.StandardCategoryToolTipGeneratorTest
-------------------------------------------------------------------------------
Tests run: 6, Failures: 0, Errors: 0, Skipped: 0, Time elapsed: 0.071 sec
