-------------------------------------------------------------------------------
Test set: org.jfree.chart.axis.TickUnitsTest
-------------------------------------------------------------------------------
Tests run: 3, Failures: 0, Errors: 0, Skipped: 0, Time elapsed: 0.011 sec
