-------------------------------------------------------------------------------
Test set: org.jfree.chart.title.LegendGraphicTest
-------------------------------------------------------------------------------
Tests run: 5, Failures: 0, Errors: 0, Skipped: 0, Time elapsed: 0.014 sec
