-------------------------------------------------------------------------------
Test set: org.jfree.chart.LineChart3DTest
-------------------------------------------------------------------------------
Tests run: 4, Failures: 0, Errors: 0, Skipped: 0, Time elapsed: 0.025 sec
